…
### Question 1: How does tree species diversity vary across different neighbourhoods of Vancouver?

#### 4. Compute the proportion and counts in each category of one categorical variable across the groups of another categorical variable from your data.

``` r
tree_species_count <- vancouver_trees %>%
  group_by(neighbourhood_name, common_name) %>%
  summarize(n = n(), .groups = 'drop') %>%
  group_by(neighbourhood_name) %>%
  mutate(proportion = n/sum(n))

print(tree_species_count)
```

    ## # A tibble: 6,141 × 4
    ## # Groups:   neighbourhood_name [22]
    ##    neighbourhood_name common_name                  n proportion
    ##    <chr>              <chr>                    <int>      <dbl>
    ##  1 ARBUTUS-RIDGE      ACCOLADE CHERRY              1   0.000193
    ##  2 ARBUTUS-RIDGE      AKEBONO FLOWERING CHERRY    61   0.0118  
    ##  3 ARBUTUS-RIDGE      ALDERLEAFED MOUNTAIN ASH     8   0.00155 
    ##  4 ARBUTUS-RIDGE      ALIA'S MAGNOLIA              3   0.000580
    ##  5 ARBUTUS-RIDGE      AMERICAN ELM                92   0.0178  
    ##  6 ARBUTUS-RIDGE      AMERICAN FILBERT             4   0.000774
    ##  7 ARBUTUS-RIDGE      AMERICAN HORNBEAM           14   0.00271 
    ##  8 ARBUTUS-RIDGE      AMERICAN MOUNTAIN ASH        8   0.00155 
    ##  9 ARBUTUS-RIDGE      AMERICAN SWEETGUM            2   0.000387
    ## 10 ARBUTUS-RIDGE      AMUR MAPLE                   5   0.000967
    ## # ℹ 6,131 more rows
…
#### 3. Create a categorical variable with 3 or more groups from an existing numerical variable. You can use this new variable in the other tasks!

``` r
vancouver_trees_age <- vancouver_trees %>%
  mutate(years_old = as.numeric(difftime(Sys.Date(), date_planted, units = "days")) / 365,
  age = case_when(
    years_old < 10 ~ "young",
    years_old >= 10 & years_old < 20 ~ "medium", 
    years_old >= 20 & years_old < 30 ~ "old", 
    years_old >= 30 ~ "very old"
  ))
print(vancouver_trees_age)
```

    ## # A tibble: 146,611 × 22
    ##    tree_id civic_number std_street    genus_name species_name cultivar_name  
    ##      <dbl>        <dbl> <chr>         <chr>      <chr>        <chr>          
    ##  1  149556          494 W 58TH AV     ULMUS      AMERICANA    BRANDON        
    ##  2  149563          450 W 58TH AV     ZELKOVA    SERRATA      <NA>           
    ##  3  149579         4994 WINDSOR ST    STYRAX     JAPONICA     <NA>           
    ##  4  149590          858 E 39TH AV     FRAXINUS   AMERICANA    AUTUMN APPLAUSE
    ##  5  149604         5032 WINDSOR ST    ACER       CAMPESTRE    <NA>           
    ##  6  149616          585 W 61ST AV     PYRUS      CALLERYANA   CHANTICLEER    
    ##  7  149617         4909 SHERBROOKE ST ACER       PLATANOIDES  COLUMNARE      
    ##  8  149618         4925 SHERBROOKE ST ACER       PLATANOIDES  COLUMNARE      
    ##  9  149619         4969 SHERBROOKE ST ACER       PLATANOIDES  COLUMNARE      
    ## 10  149625          720 E 39TH AV     FRAXINUS   AMERICANA    AUTUMN APPLAUSE
    ## # ℹ 146,601 more rows
    ## # ℹ 16 more variables: common_name <chr>, assigned <chr>, root_barrier <chr>,
    ## #   plant_area <chr>, on_street_block <dbl>, on_street <chr>,
    ## #   neighbourhood_name <chr>, street_side_name <chr>, height_range_id <dbl>,
    ## #   diameter <dbl>, curb <chr>, date_planted <date>, longitude <dbl>,
    ## #   latitude <dbl>, years_old <dbl>, age <chr>
…
    ## # A tibble: 4 × 2
    ##   size       n
    ##   <chr>  <int>
    ## 1 Large    913
    ## 2 Medium  5641
    ## 3 Small  80615
    ## 4 <NA>   59442

``` r
print(vancouver_trees_size)
```

    ## # A tibble: 146,611 × 21
    ##    tree_id civic_number std_street    genus_name species_name cultivar_name  
    ##      <dbl>        <dbl> <chr>         <chr>      <chr>        <chr>          
    ##  1  149556          494 W 58TH AV     ULMUS      AMERICANA    BRANDON        
    ##  2  149563          450 W 58TH AV     ZELKOVA    SERRATA      <NA>           
    ##  3  149579         4994 WINDSOR ST    STYRAX     JAPONICA     <NA>           
    ##  4  149590          858 E 39TH AV     FRAXINUS   AMERICANA    AUTUMN APPLAUSE
    ##  5  149604         5032 WINDSOR ST    ACER       CAMPESTRE    <NA>           
    ##  6  149616          585 W 61ST AV     PYRUS      CALLERYANA   CHANTICLEER    
    ##  7  149617         4909 SHERBROOKE ST ACER       PLATANOIDES  COLUMNARE      
    ##  8  149618         4925 SHERBROOKE ST ACER       PLATANOIDES  COLUMNARE      
    ##  9  149619         4969 SHERBROOKE ST ACER       PLATANOIDES  COLUMNARE      
    ## 10  149625          720 E 39TH AV     FRAXINUS   AMERICANA    AUTUMN APPLAUSE
    ## # ℹ 146,601 more rows
    ## # ℹ 15 more variables: common_name <chr>, assigned <chr>, root_barrier <chr>,
    ## #   plant_area <chr>, on_street_block <dbl>, on_street <chr>,
    ## #   neighbourhood_name <chr>, street_side_name <chr>, height_range_id <dbl>,
    ## #   diameter <dbl>, curb <chr>, date_planted <date>, longitude <dbl>,
    ## #   latitude <dbl>, size <chr>
…
``` r
size_data <- vancouver_trees_size %>%
  filter(!is.na(size)) %>%
  group_by(genus_name, size) %>%
  summarize(count=n())
```

    ## `summarise()` has grouped output by 'genus_name'. You can override using the
    ## `.groups` argument.

``` r
print(size_data)
```

    ## # A tibble: 175 × 3
    ## # Groups:   genus_name [96]
    ##    genus_name size   count
    ##    <chr>      <chr>  <int>
    ##  1 ABIES      Large      3
    ##  2 ABIES      Medium     2
    ##  3 ABIES      Small     89
    ##  4 ACER       Large    139
    ##  5 ACER       Medium   111
    ##  6 ACER       Small  19541
    ##  7 AESCULUS   Large     76
    ##  8 AESCULUS   Medium    19
    ##  9 AESCULUS   Small    287
    ## 10 AILANTHUS  Small      1
    ## # ℹ 165 more rows
…
### Question 4: Since this data started to be collected, have trends of planting trees susceptible to invasive species(American Elm, Green Ash and White Ash) declined?

#### 4. Compute the proportion and counts in each category of one categorical variable across the groups of another categorical variable from your data. Do not use the function `table()`!

``` r
susceptible_trees <- vancouver_trees_age %>%
  filter(common_name == "AMERICAN ELM" |
         common_name == "GREEN ASH" |
         common_name == "WHITE ASH" )

print(susceptible_trees)
```

    ## # A tibble: 2,375 × 22
    ##    tree_id civic_number std_street    genus_name species_name  cultivar_name
    ##      <dbl>        <dbl> <chr>         <chr>      <chr>         <chr>        
    ##  1  156061         2659 W 19TH AV     FRAXINUS   AMERICANA     <NA>         
    ##  2  157229         1846 VENABLES ST   ULMUS      AMERICANA     <NA>         
    ##  3  157612         2188 E 27TH AV     FRAXINUS   PENNSYLVANICA <NA>         
    ##  4  159619         2715 W 38TH AV     ULMUS      AMERICANA     <NA>         
    ##  5  160171         1878 W 60TH AV     FRAXINUS   PENNSYLVANICA <NA>         
    ##  6  161795          449 E 12TH AV     ULMUS      AMERICANA     <NA>         
    ##  7  162516         1060 W 15TH AV     FRAXINUS   AMERICANA     <NA>         
    ##  8  162562         3854 W 14TH AV     ULMUS      AMERICANA     <NA>         
    ##  9  162976         6268 MARGUERITE ST ULMUS      AMERICANA     <NA>         
    ## 10  163533         3525 W 24TH AV     ULMUS      AMERICANA     <NA>         
    ## # ℹ 2,365 more rows
    ## # ℹ 16 more variables: common_name <chr>, assigned <chr>, root_barrier <chr>,
    ## #   plant_area <chr>, on_street_block <dbl>, on_street <chr>,
    ## #   neighbourhood_name <chr>, street_side_name <chr>, height_range_id <dbl>,
    ## #   diameter <dbl>, curb <chr>, date_planted <date>, longitude <dbl>,
    ## #   latitude <dbl>, years_old <dbl>, age <chr>
…
### 2.1 (2 points)

Based on the definition above, can you identify if your data is tidy or
untidy? Go through all your columns, or if you have \>8 variables, just
pick 8, and explain whether the data is untidy or tidy.

<!--------------------------- Start your work below --------------------------->

``` r
small_vancouver_trees <- vancouver_trees %>%
  select(tree_id, common_name, genus_name, species_name, neighbourhood_name, height_range_id, diameter, date_planted)
print(small_vancouver_trees)
```

    ## # A tibble: 146,611 × 8
    ##    tree_id common_name           genus_name species_name neighbourhood_name     
    ##      <dbl> <chr>                 <chr>      <chr>        <chr>                  
    ##  1  149556 BRANDON ELM           ULMUS      AMERICANA    MARPOLE                
    ##  2  149563 JAPANESE ZELKOVA      ZELKOVA    SERRATA      MARPOLE                
    ##  3  149579 JAPANESE SNOWBELL     STYRAX     JAPONICA     KENSINGTON-CEDAR COTTA…
    ##  4  149590 AUTUMN APPLAUSE ASH   FRAXINUS   AMERICANA    KENSINGTON-CEDAR COTTA…
    ##  5  149604 HEDGE MAPLE           ACER       CAMPESTRE    KENSINGTON-CEDAR COTTA…
    ##  6  149616 CHANTICLEER PEAR      PYRUS      CALLERYANA   MARPOLE                
    ##  7  149617 COLUMNAR NORWAY MAPLE ACER       PLATANOIDES  KENSINGTON-CEDAR COTTA…
    ##  8  149618 COLUMNAR NORWAY MAPLE ACER       PLATANOIDES  KENSINGTON-CEDAR COTTA…
    ##  9  149619 COLUMNAR NORWAY MAPLE ACER       PLATANOIDES  KENSINGTON-CEDAR COTTA…
    ## 10  149625 AUTUMN APPLAUSE ASH   FRAXINUS   AMERICANA    KENSINGTON-CEDAR COTTA…
    ## # ℹ 146,601 more rows
    ## # ℹ 3 more variables: height_range_id <dbl>, diameter <dbl>,
    ## #   date_planted <date>
…
If your data is untidy, then tidy it! Then, untidy it back to it’s
original state.

Be sure to explain your reasoning for this task. Show us the “before”
and “after”.

<!--------------------------- Start your work below --------------------------->

#### Before Dataset (TIDY)

``` r
print(small_vancouver_trees)
```

    ## # A tibble: 146,611 × 8
    ##    tree_id common_name           genus_name species_name neighbourhood_name     
    ##      <dbl> <chr>                 <chr>      <chr>        <chr>                  
    ##  1  149556 BRANDON ELM           ULMUS      AMERICANA    MARPOLE                
    ##  2  149563 JAPANESE ZELKOVA      ZELKOVA    SERRATA      MARPOLE                
    ##  3  149579 JAPANESE SNOWBELL     STYRAX     JAPONICA     KENSINGTON-CEDAR COTTA…
    ##  4  149590 AUTUMN APPLAUSE ASH   FRAXINUS   AMERICANA    KENSINGTON-CEDAR COTTA…
    ##  5  149604 HEDGE MAPLE           ACER       CAMPESTRE    KENSINGTON-CEDAR COTTA…
    ##  6  149616 CHANTICLEER PEAR      PYRUS      CALLERYANA   MARPOLE                
    ##  7  149617 COLUMNAR NORWAY MAPLE ACER       PLATANOIDES  KENSINGTON-CEDAR COTTA…
    ##  8  149618 COLUMNAR NORWAY MAPLE ACER       PLATANOIDES  KENSINGTON-CEDAR COTTA…
    ##  9  149619 COLUMNAR NORWAY MAPLE ACER       PLATANOIDES  KENSINGTON-CEDAR COTTA…
    ## 10  149625 AUTUMN APPLAUSE ASH   FRAXINUS   AMERICANA    KENSINGTON-CEDAR COTTA…
    ## # ℹ 146,601 more rows
    ## # ℹ 3 more variables: height_range_id <dbl>, diameter <dbl>,
    ## #   date_planted <date>

#### During Dataset (UNTIDY)

``` r
small_vancouver_trees_untidy <- small_vancouver_trees %>%
  unite("scientific_name", genus_name, species_name, sep = " ") %>%
  mutate(maple = if_else(str_detect(common_name, "MAPLE"), "Maple", "Not Maple")) %>%
  pivot_longer(cols = maple, 
               names_to = "Maple",
               values_to = "category_status")
print(small_vancouver_trees_untidy)
```

    ## # A tibble: 146,611 × 9
    ##    tree_id common_name        scientific_name neighbourhood_name height_range_id
    ##      <dbl> <chr>              <chr>           <chr>                        <dbl>
    ##  1  149556 BRANDON ELM        ULMUS AMERICANA MARPOLE                          2
    ##  2  149563 JAPANESE ZELKOVA   ZELKOVA SERRATA MARPOLE                          4
    ##  3  149579 JAPANESE SNOWBELL  STYRAX JAPONICA KENSINGTON-CEDAR …               3
    ##  4  149590 AUTUMN APPLAUSE A… FRAXINUS AMERI… KENSINGTON-CEDAR …               4
    ##  5  149604 HEDGE MAPLE        ACER CAMPESTRE  KENSINGTON-CEDAR …               2
    ##  6  149616 CHANTICLEER PEAR   PYRUS CALLERYA… MARPOLE                          2
    ##  7  149617 COLUMNAR NORWAY M… ACER PLATANOID… KENSINGTON-CEDAR …               3
    ##  8  149618 COLUMNAR NORWAY M… ACER PLATANOID… KENSINGTON-CEDAR …               3
    ##  9  149619 COLUMNAR NORWAY M… ACER PLATANOID… KENSINGTON-CEDAR …               2
    ## 10  149625 AUTUMN APPLAUSE A… FRAXINUS AMERI… KENSINGTON-CEDAR …               2
    ## # ℹ 146,601 more rows
    ## # ℹ 4 more variables: diameter <dbl>, date_planted <date>, Maple <chr>,
    ## #   category_status <chr>
…
``` r
small_vancouver_trees_tidy <- small_vancouver_trees_untidy %>%
  separate(scientific_name, into = c("genus_name", "species_name")) %>%
  select(-Maple, -category_status)
```

    ## Warning: Expected 2 pieces. Additional pieces discarded in 15303 rows [11, 12, 48, 55,
    ## 58, 59, 60, 99, 248, 249, 257, 258, 259, 260, 261, 314, 315, 316, 317, 342,
    ## ...].

``` r
print(small_vancouver_trees_tidy)
```

    ## # A tibble: 146,611 × 8
    ##    tree_id common_name           genus_name species_name neighbourhood_name     
    ##      <dbl> <chr>                 <chr>      <chr>        <chr>                  
    ##  1  149556 BRANDON ELM           ULMUS      AMERICANA    MARPOLE                
    ##  2  149563 JAPANESE ZELKOVA      ZELKOVA    SERRATA      MARPOLE                
    ##  3  149579 JAPANESE SNOWBELL     STYRAX     JAPONICA     KENSINGTON-CEDAR COTTA…
    ##  4  149590 AUTUMN APPLAUSE ASH   FRAXINUS   AMERICANA    KENSINGTON-CEDAR COTTA…
    ##  5  149604 HEDGE MAPLE           ACER       CAMPESTRE    KENSINGTON-CEDAR COTTA…
    ##  6  149616 CHANTICLEER PEAR      PYRUS      CALLERYANA   MARPOLE                
    ##  7  149617 COLUMNAR NORWAY MAPLE ACER       PLATANOIDES  KENSINGTON-CEDAR COTTA…
    ##  8  149618 COLUMNAR NORWAY MAPLE ACER       PLATANOIDES  KENSINGTON-CEDAR COTTA…
    ##  9  149619 COLUMNAR NORWAY MAPLE ACER       PLATANOIDES  KENSINGTON-CEDAR COTTA…
    ## 10  149625 AUTUMN APPLAUSE ASH   FRAXINUS   AMERICANA    KENSINGTON-CEDAR COTTA…
    ## # ℹ 146,601 more rows
    ## # ℹ 3 more variables: height_range_id <dbl>, diameter <dbl>,
    ## #   date_planted <date>
…
(If it makes more sense, then you can make/pick two versions of your
data, one for each research question.)

<!--------------------------- Start your work below --------------------------->

``` r
new_van_trees <- vancouver_trees_size %>%
  arrange(neighbourhood_name, common_name) %>%
  drop_na() %>% 
  select(-civic_number, -assigned, -root_barrier, -plant_area, -curb, - std_street) %>%
  relocate(tree_id, common_name, genus_name, species_name, cultivar_name, neighbourhood_name, on_street, on_street_block, street_side_name, longitude, latitude, height_range_id, diameter, size, date_planted)
print(new_van_trees)
```

    ## # A tibble: 35,517 × 15
    ##    tree_id common_name  genus_name species_name cultivar_name neighbourhood_name
    ##      <dbl> <chr>        <chr>      <chr>        <chr>         <chr>             
    ##  1  158745 AKEBONO FLO… PRUNUS     X YEDOENSIS  AKEBONO       ARBUTUS-RIDGE     
    ##  2  162079 AKEBONO FLO… PRUNUS     X YEDOENSIS  AKEBONO       ARBUTUS-RIDGE     
    ##  3  163324 AKEBONO FLO… PRUNUS     X YEDOENSIS  AKEBONO       ARBUTUS-RIDGE     
    ##  4  197079 AKEBONO FLO… PRUNUS     X YEDOENSIS  AKEBONO       ARBUTUS-RIDGE     
    ##  5  229611 AKEBONO FLO… PRUNUS     X YEDOENSIS  AKEBONO       ARBUTUS-RIDGE     
    ##  6  230936 AKEBONO FLO… PRUNUS     X YEDOENSIS  AKEBONO       ARBUTUS-RIDGE     
    ##  7  231761 AKEBONO FLO… PRUNUS     X YEDOENSIS  AKEBONO       ARBUTUS-RIDGE     
    ##  8  208286 AKEBONO FLO… PRUNUS     X YEDOENSIS  AKEBONO       ARBUTUS-RIDGE     
    ##  9  182598 AKEBONO FLO… PRUNUS     X YEDOENSIS  AKEBONO       ARBUTUS-RIDGE     
    ## 10  148877 AKEBONO FLO… PRUNUS     X YEDOENSIS  AKEBONO       ARBUTUS-RIDGE     
    ## # ℹ 35,507 more rows
    ## # ℹ 9 more variables: on_street <chr>, on_street_block <dbl>,
    ## #   street_side_name <chr>, longitude <dbl>, latitude <dbl>,
    ## #   height_range_id <dbl>, diameter <dbl>, size <chr>, date_planted <date>
…
``` r
ntrees_per_species <- new_van_trees %>%
  group_by(neighbourhood_name, common_name) %>%
  summarize(n = n())
```

    ## `summarise()` has grouped output by 'neighbourhood_name'. You can override
    ## using the `.groups` argument.

``` r
print(ntrees_per_species)
```

    ## # A tibble: 2,195 × 3
    ## # Groups:   neighbourhood_name [22]
    ##    neighbourhood_name common_name                   n
    ##    <chr>              <chr>                     <int>
    ##  1 ARBUTUS-RIDGE      AKEBONO FLOWERING CHERRY     45
    ##  2 ARBUTUS-RIDGE      ALDERLEAFED MOUNTAIN ASH      6
    ##  3 ARBUTUS-RIDGE      ALIA'S MAGNOLIA               3
    ##  4 ARBUTUS-RIDGE      ARISTOCRAT PEAR              14
    ##  5 ARBUTUS-RIDGE      ARMSTRONG RED MAPLE          12
    ##  6 ARBUTUS-RIDGE      ARNOLD TULIPTREE             14
    ##  7 ARBUTUS-RIDGE      AUTUMN APPLAUSE ASH          38
    ##  8 ARBUTUS-RIDGE      AUTUMN FLAME RED MAPLE       13
    ##  9 ARBUTUS-RIDGE      AUTUMN SPLENDOR CHESTNUT      4
    ## 10 ARBUTUS-RIDGE      BAILEY SELECT CHOKECHERRY     8
    ## # ℹ 2,185 more rows
…
