…
##### Dataset 2: vancouver_trees

``` r
vancouver_trees %>%
group_by(species_name) %>%
summarise(count = n())
```

    ## # A tibble: 283 × 2
    ##    species_name   count
    ##    <chr>          <int>
    ##  1 ABIES            139
    ##  2 ACERIFOLIA   X  1724
    ##  3 ACUMINATA          7
    ##  4 ACUTISSIMA       526
    ##  5 AILANTHIFOLIA      5
    ##  6 ALBA              26
    ##  7 ALBA-SINENSIS      3
    ##  8 ALNIFOLIA        274
    ##  9 ALPINUM            1
    ## 10 ALTISSIMA          4
    ## # ℹ 273 more rows
…
##### Dataset 3: apt_buildings

``` r
apt_buildings %>%
group_by(year_built) %>%
summarise(count = n())
```

    ## # A tibble: 128 × 2
    ##    year_built count
    ##         <dbl> <int>
    ##  1       1805     1
    ##  2       1809     1
    ##  3       1838     1
    ##  4       1880     1
    ##  5       1885     2
    ##  6       1888     1
    ##  7       1890     1
    ##  8       1891     1
    ##  9       1895     1
    ## 10       1896     1
    ## # ℹ 118 more rows
…
##### Dataset 4: building_permits

``` r
building_permits %>%
group_by(property_use) %>%
summarise(count = n())
```

    ## # A tibble: 100 × 2
    ##    property_use                                                            count
    ##    <chr>                                                                   <int>
    ##  1 Agricultural Uses                                                           2
    ##  2 Cultural/Recreational Uses                                                364
    ##  3 Cultural/Recreational Uses,Dwelling Uses                                    3
    ##  4 Cultural/Recreational Uses,Dwelling Uses,Institutional Uses,Retail Uses     1
    ##  5 Cultural/Recreational Uses,Dwelling Uses,Office Uses                        1
    ##  6 Cultural/Recreational Uses,Dwelling Uses,Office Uses,Retail Uses,Servi…     1
    ##  7 Cultural/Recreational Uses,Dwelling Uses,Retail Uses                        1
    ##  8 Cultural/Recreational Uses,Institutional Uses                               1
    ##  9 Cultural/Recreational Uses,Manufacturing Uses                               1
    ## 10 Cultural/Recreational Uses,Office Uses                                     14
    ## # ℹ 90 more rows
…
